@a INT,                       --Input parameter 1,  
@b INT,                       --Input parameter 2,  
@c INT,
@out_RESUN VARCHAR(200)  OUT,     -- Out parameter declared with the help of OUT keyword
@x1 float  OUT,
@x2 float  OUT


SELECT @x1= (-@b + SQRT(@d))/(2*@a); 
SELECT @x2= (-@b - SQRT(@d))/(2*@a); 